Isauro R – AI: It's Usage in North American Companies
…
Other Services (except Public Administration) = 81

Public Administration = 92

NA = 99

Source: https://www.census.gov/naics/?58967?yearbck=2017

Code
cs_panel_clean |>
  group_by(naics_sector) |>
  summarize(medianPay = median(payroll_per_emp)) |>
  arrange(desc(medianPay))

# A tibble: 1,910 × 2
   naics_sector medianPay
   <chr>            <dbl>
 1 522293         407473.
 2 711211         293208.
 3 5232           214697.
 4 52413          186906.
 5 524130         186906.
 6 5231           176339.
 7 52311          162067.
 8 523110         162067.
 9 52312          156349.
10 523120         156349.
# ℹ 1,900 more rows
…
2021 reported the highest median payroll per employee at $58.71. 2017 reported the lowest at $47.78.

naics_sector and Year

Code
cs_panel_clean |>
  group_by(naics_sector, year) |>
  summarize(medianPay = median(payroll_per_emp)) |>
  arrange(desc(medianPay))

# A tibble: 2,804 × 3
# Groups:   naics_sector [1,910]
   naics_sector  year medianPay
   <chr>        <dbl>     <dbl>
 1 522293        2017   407473.
 2 711211        2017   293208.
 3 5232          2021   248386.
 4 5231          2021   203980.
 5 52413         2017   186906.
 6 524130        2017   186906.
 7 5231          2020   177422.
 8 5232          2020   177010.
 9 523           2021   166128.
10 52311         2017   162067.
# ℹ 2,794 more rows
…
