Appendix A — Proposal – Project Title
…
Code

##
data <- response |> 
  httr2::resp_body_json(simplifyVector = TRUE) |> 
  janitor::row_to_names(1) |> 
  dplyr::as_data_frame() |> 
  dplyr::mutate(across(c(EMP, PAYANN, FIRMPDEMP), as.numeric))

data

# A tibble: 51 × 4
        EMP     PAYANN FIRMPDEMP state
      <dbl>      <dbl>     <dbl> <chr>
 1  1713225   95283392     70676 01   
 2   255715   18142987     16222 02   
 3  2721965  164602702    119314 04   
 4  1131244   61012159     49201 05   
 5 15602463 1321534096    791791 06   
 6  2395734  163654663    140658 08   
 7  1442000  108289276     65346 09   
 8   436188   30900635     22350 10   
 9  9530354  561728621    500294 12   
10   481315   29636443     23211 15   
# ℹ 41 more rows
…
